    1  find -name "*.go" -exec/ | xargs ls -l
    2  touch casa.go
    3  touch casa1.go
    4  vi casa1.go
    5  grep -nr casa
    6  top
    7  top 5
    8  top 
    9  ip route show
   10  ip route get 172.0.5.0
   11  ip route add 172.17.0.26/32 via 172.17.0.1
   12  ip route add 172.17.0.26/32 via 0.0.0.0
   13  ip route add 172.17.0.26/32 via 172.0.14.215
   14  ip route add 172.17.0.26/32 via 0.0.0.0
   15  ps aux --sort=pid|head -n 11 >> ps
   16  mkdir train
   17  cd train
   18  ps aux --sort=pid|head -n 11 >> ps
   19  rmdir train
   20  cd ..
   21  rmdir train
   22  rm train
   23  rmdir train
   24  mkdir train
   25  rmdir train
   26  rm train
   27  git clone https://gitlab.com/fenghuiting/n3iwf-test.git
   28  ls
   29  apt-get install git
   30  git clone https://gitlab.com/fenghuiting/n3iwf-test.git
   31  ls
   32  cd n3iwf-test/
   33  git branch
   34  touch REANME.md
   35  touch README.md
   36  git add README.md
   37  git commit -m "Add README"
   38  git push -u origin master
   39  git pull
   40  git push -u origin +master
   41  git pull
   42  ssh-keygen -t rsa -C "876633820@qq.com"
   43  cd ssh
   44  ls
   45  cd ..
   46  ls
   47  ssh-keygen -t rsa -C "876633820@qq.com"
   48  git config --global user.email"876633820@qq.com"
   49  git config --global user.name "fenghuiting"
   50  mkdir gitlab
   51  cd gitlab
   52  git init
   53  git clone
   54  ls
   55  ssh -T git@gitlab.com
   56  git config --global user.email "876633820@qq.com"
   57  git config --global user.name "fenghuiting"
   58  ls
   59  cd gitlab
   60  git init
   61  git clone git@gitlab.com:fenghuiting/n3iwf-test.git
   62  git clone https://gitlab.com/fenghuiting/n3iwf-test.git
   63  git config --global user.name"fenghuiting"
   64  history
   65  history > mylog.txt
